^C:\USERS\ANTON\DESKTOP\HOME_WORK6\LESSON17.5\LESSON17.5\X64\DEBUG\LESSON17.5.OBJ|C:\USERS\ANTON\DESKTOP\HOME_WORK6\LESSON17.5\LESSON17.5\X64\DEBUG\VECTOR.OBJ
/OUT:"C:\USERS\ANTON\DESKTOP\HOME_WORK6\LESSON17.5\X64\DEBUG\LESSON17.5.EXE" /INCREMENTAL /ILK:"X64\DEBUG\LESSON17.5.ILK" /NOLOGO KERNEL32.LIB USER32.LIB GDI32.LIB WINSPOOL.LIB COMDLG32.LIB ADVAPI32.LIB SHELL32.LIB OLE32.LIB OLEAUT32.LIB UUID.LIB ODBC32.LIB ODBCCP32.LIB /MANIFEST /MANIFESTUAC:"level='asInvoker' uiAccess='false'" /manifest:embed /DEBUG /PDB:"C:\USERS\ANTON\DESKTOP\HOME_WORK6\LESSON17.5\X64\DEBUG\LESSON17.5.PDB" /SUBSYSTEM:CONSOLE /TLBID:1 /DYNAMICBASE /NXCOMPAT /IMPLIB:"C:\USERS\ANTON\DESKTOP\HOME_WORK6\LESSON17.5\X64\DEBUG\LESSON17.5.LIB" /MACHINE:X64 X64\DEBUG\LESSON17.5.OBJ
X64\DEBUG\VECTOR.OBJ
